{
  "hosting": {
    "public": "dist/lessons",
    "ignore": [
      "firebase.json",
      "**/.*",
      "**/node_modules/**"
    ],
    "rewrites": [{
      "source": "**",
      "destination": "/index.html"
    }]
  }
}
